[gd_scene load_steps=7 format=3 uid="uid://d1j3q6m8840c3"]

[ext_resource type="PackedScene" uid="uid://c68d1h0hdf2kr" path="res://player.tscn" id="1_fmdr6"]
[ext_resource type="PackedScene" uid="uid://d37bpyjkvuawc" path="res://world/world.tscn" id="2_2qp1r"]

[sub_resource type="ProceduralSkyMaterial" id="ProceduralSkyMaterial_60wyv"]
sky_top_color = Color(0.454902, 0.686275, 0.956863, 1)
sky_horizon_color = Color(0.682353, 0.760784, 0.878431, 1)
ground_bottom_color = Color(0.27451, 0.364706, 0.552941, 1)
ground_horizon_color = Color(0.681957, 0.762649, 0.877927, 1)

[sub_resource type="Sky" id="Sky_8egjw"]
sky_material = SubResource("ProceduralSkyMaterial_60wyv")

[sub_resource type="Environment" id="Environment_nm07b"]
background_mode = 2
sky = SubResource("Sky_8egjw")
tonemap_mode = 2
ssao_enabled = true
ssao_radius = 16.0
ssao_intensity = 1.0
ssao_power = 2.0
ssao_detail = 2.0
ssao_horizon = 0.0
ssil_enabled = true
ssil_radius = 9.0
ssil_intensity = 2.0
sdfgi_enabled = true
sdfgi_min_cell_size = 0.33
sdfgi_cascade0_distance = 21.12
sdfgi_max_distance = 337.92
sdfgi_y_scale = 2
sdfgi_energy = 2.0
fog_enabled = true
fog_aerial_perspective = 0.167
fog_height_density = -0.001
volumetric_fog_enabled = true
volumetric_fog_density = 0.025
volumetric_fog_albedo = Color(0.27451, 0.364706, 0.552941, 1)
volumetric_fog_gi_inject = 0.17
volumetric_fog_length = 32.0

[sub_resource type="GDScript" id="GDScript_4pbps"]
script/source = "# Copyright (c) 2022 Sosasees
# this script is MIT-licensed:
# 	https://codeberg.org/Sosasees/mit-license/raw/branch/2022/LICENSE
# source:
# 	https://codeberg.org/Sosasees/godot-4-voxel-test

extends Node


func _unhandled_input(event : InputEvent) -> void:
	if event is InputEventMouseButton:
		Input.set_mouse_mode(Input.MOUSE_MODE_CAPTURED)
	if Input.is_action_just_pressed(\"ui_cancel\"):
		Input.set_mouse_mode(Input.MOUSE_MODE_VISIBLE)
"

[node name="Main" type="Node3D"]

[node name="Sun" type="DirectionalLight3D" parent="."]
transform = Transform3D(-0.955793, -0.254646, 0.14702, -1.49012e-08, 0.5, 0.866025, -0.29404, 0.827741, -0.477897, 0, 0, 0)
light_color = Color(0.972948, 0.943498, 0.858899, 1)
shadow_enabled = true
directional_shadow_max_distance = 250.0

[node name="WorldEnvironment" type="WorldEnvironment" parent="."]
environment = SubResource("Environment_nm07b")

[node name="Player" parent="." instance=ExtResource("1_fmdr6")]
transform = Transform3D(1, 0, 0, 0, 1, 0, 0, 0, 1, 8, 16, -8)
slide_on_ceiling = false

[node name="World" parent="." instance=ExtResource("2_2qp1r")]

[node name="CaptureMouse" type="Node" parent="."]
script = SubResource("GDScript_4pbps")
